<?xml version="1.0" encoding="UTF-8" standalone="no"?>
<!-- Created with Inkscape (http://www.inkscape.org/) -->

<svg
   xmlns:osb="http://www.openswatchbook.org/uri/2009/osb"
   xmlns:dc="http://purl.org/dc/elements/1.1/"
   xmlns:cc="http://creativecommons.org/ns#"
   xmlns:rdf="http://www.w3.org/1999/02/22-rdf-syntax-ns#"
   xmlns:svg="http://www.w3.org/2000/svg"
   xmlns="http://www.w3.org/2000/svg"
   xmlns:xlink="http://www.w3.org/1999/xlink"
   xmlns:sodipodi="http://sodipodi.sourceforge.net/DTD/sodipodi-0.dtd"
   xmlns:inkscape="http://www.inkscape.org/namespaces/inkscape"
   width="297mm"
   height="210mm"
   viewBox="0 0 297 210"
   version="1.1"
   id="svg8"
   inkscape:version="0.92.3 (2405546, 2018-03-11)"
   sodipodi:docname="DiagramaGeneral_Anteproyecto.svg"
   inkscape:export-filename="F:\Datos_Joel\repos\dig3_compartido\documents\TP_FINAL2018\DiagramaGeneral_Anteproyecto.png"
   inkscape:export-xdpi="96"
   inkscape:export-ydpi="96">
  <defs
     id="defs2">
    <linearGradient
       id="linearGradient6432"
       osb:paint="solid">
      <stop
         style="stop-color:#000000;stop-opacity:1;"
         offset="0"
         id="stop6430" />
    </linearGradient>
    <linearGradient
       id="linearGradient4981"
       osb:paint="solid">
      <stop
         style="stop-color:#000000;stop-opacity:1;"
         offset="0"
         id="stop4979" />
    </linearGradient>
    <marker
       inkscape:isstock="true"
       style="overflow:visible"
       id="marker4884"
       refX="0"
       refY="0"
       orient="auto"
       inkscape:stockid="Arrow2Lstart">
      <path
         transform="matrix(1.1,0,0,1.1,1.1,0)"
         d="M 8.7185878,4.0337352 -2.2072895,0.01601326 8.7185884,-4.0017078 c -1.7454984,2.3720609 -1.7354408,5.6174519 -6e-7,8.035443 z"
         style="fill:#000000;fill-opacity:1;fill-rule:evenodd;stroke:#000000;stroke-width:0.625;stroke-linejoin:round;stroke-opacity:1"
         id="path4882"
         inkscape:connector-curvature="0" />
    </marker>
    <marker
       inkscape:isstock="true"
       style="overflow:visible"
       id="marker4859"
       refX="0"
       refY="0"
       orient="auto"
       inkscape:stockid="Arrow2Lstart">
      <path
         transform="matrix(1.1,0,0,1.1,1.1,0)"
         d="M 8.7185878,4.0337352 -2.2072895,0.01601326 8.7185884,-4.0017078 c -1.7454984,2.3720609 -1.7354408,5.6174519 -6e-7,8.035443 z"
         style="fill:#000000;fill-opacity:1;fill-rule:evenodd;stroke:#000000;stroke-width:0.625;stroke-linejoin:round;stroke-opacity:1"
         id="path4857"
         inkscape:connector-curvature="0" />
    </marker>
    <linearGradient
       id="linearGradient4845"
       osb:paint="solid">
      <stop
         style="stop-color:#ffffca;stop-opacity:1;"
         offset="0"
         id="stop4843" />
    </linearGradient>
    <linearGradient
       id="linearGradient12029"
       osb:paint="solid">
      <stop
         style="stop-color:#7fccee;stop-opacity:0.23137255;"
         offset="0"
         id="stop12027" />
    </linearGradient>
    <marker
       inkscape:stockid="Arrow2Lstart"
       orient="auto"
       refY="0"
       refX="0"
       id="Arrow2Lstart"
       style="overflow:visible"
       inkscape:isstock="true"
       inkscape:collect="always">
      <path
         id="path11482"
         style="fill:#000000;fill-opacity:1;fill-rule:evenodd;stroke:#000000;stroke-width:0.625;stroke-linejoin:round;stroke-opacity:1"
         d="M 8.7185878,4.0337352 -2.2072895,0.01601326 8.7185884,-4.0017078 c -1.7454984,2.3720609 -1.7354408,5.6174519 -6e-7,8.035443 z"
         transform="matrix(1.1,0,0,1.1,1.1,0)"
         inkscape:connector-curvature="0" />
    </marker>
    <symbol
       id="Process">
      <title
         id="title5638">Process</title>
      <desc
         id="desc5640">Any processing function.</desc>
      <rect
         x="3.96875"
         y="9.260417"
         width="31.75"
         height="21.166666"
         style="stroke-width:0.52916664"
         id="rect5642" />
    </symbol>
    <symbol
       id="AuxillaryOp">
      <title
         id="title5703">Auxiliary Operation</title>
      <desc
         id="desc5705">Offline operation.</desc>
      <rect
         x="9.260417"
         y="9.260417"
         width="21.166666"
         height="21.166666"
         style="stroke-width:0.52916664"
         id="rect5707" />
    </symbol>
    <marker
       inkscape:stockid="Arrow2Lstart"
       orient="auto"
       refY="0"
       refX="0"
       id="Arrow2Lstart-5"
       style="overflow:visible"
       inkscape:isstock="true">
      <path
         inkscape:connector-curvature="0"
         id="path11482-3"
         style="fill:#000000;fill-opacity:1;fill-rule:evenodd;stroke:#000000;stroke-width:0.625;stroke-linejoin:round;stroke-opacity:1"
         d="M 8.7185878,4.0337352 -2.2072895,0.01601326 8.7185884,-4.0017078 c -1.7454984,2.3720609 -1.7354408,5.6174519 -6e-7,8.035443 z"
         transform="matrix(1.1,0,0,1.1,1.1,0)" />
    </marker>
    <marker
       inkscape:stockid="Arrow2Lstart"
       orient="auto"
       refY="0"
       refX="0"
       id="Arrow2Lstart-3"
       style="overflow:visible"
       inkscape:isstock="true">
      <path
         inkscape:connector-curvature="0"
         id="path11482-9"
         style="fill:#000000;fill-opacity:1;fill-rule:evenodd;stroke:#000000;stroke-width:0.625;stroke-linejoin:round;stroke-opacity:1"
         d="M 8.7185878,4.0337352 -2.2072895,0.01601326 8.7185884,-4.0017078 c -1.7454984,2.3720609 -1.7354408,5.6174519 -6e-7,8.035443 z"
         transform="matrix(1.1,0,0,1.1,1.1,0)" />
    </marker>
    <linearGradient
       inkscape:collect="always"
       xlink:href="#linearGradient12029"
       id="linearGradient6439"
       gradientUnits="userSpaceOnUse"
       x1="8.9958334"
       y1="19.84375"
       x2="30.691666"
       y2="19.84375" />
    <linearGradient
       inkscape:collect="always"
       xlink:href="#linearGradient12029"
       id="linearGradient6441"
       gradientUnits="userSpaceOnUse"
       x1="8.9958334"
       y1="19.84375"
       x2="30.691666"
       y2="19.84375" />
    <linearGradient
       inkscape:collect="always"
       xlink:href="#linearGradient12029"
       id="linearGradient6443"
       gradientUnits="userSpaceOnUse"
       x1="8.9958334"
       y1="19.84375"
       x2="30.691666"
       y2="19.84375" />
    <linearGradient
       inkscape:collect="always"
       xlink:href="#linearGradient12029"
       id="linearGradient6445"
       gradientUnits="userSpaceOnUse"
       x1="8.9958334"
       y1="19.84375"
       x2="30.691666"
       y2="19.84375" />
    <linearGradient
       inkscape:collect="always"
       xlink:href="#linearGradient12029"
       id="linearGradient6447"
       gradientUnits="userSpaceOnUse"
       x1="8.9958334"
       y1="19.84375"
       x2="30.691666"
       y2="19.84375" />
    <linearGradient
       inkscape:collect="always"
       xlink:href="#linearGradient12029"
       id="linearGradient6467"
       gradientUnits="userSpaceOnUse"
       x1="8.9958334"
       y1="19.84375"
       x2="30.691666"
       y2="19.84375" />
    <linearGradient
       inkscape:collect="always"
       xlink:href="#linearGradient12029"
       id="linearGradient6469"
       gradientUnits="userSpaceOnUse"
       x1="8.9958334"
       y1="19.84375"
       x2="30.691666"
       y2="19.84375" />
    <marker
       inkscape:stockid="Arrow2Lstart"
       orient="auto"
       refY="0"
       refX="0"
       id="Arrow2Lstart-3-1"
       style="overflow:visible"
       inkscape:isstock="true">
      <path
         inkscape:connector-curvature="0"
         id="path11482-9-7"
         style="fill:#000000;fill-opacity:1;fill-rule:evenodd;stroke:#000000;stroke-width:0.625;stroke-linejoin:round;stroke-opacity:1"
         d="M 8.7185878,4.0337352 -2.2072895,0.01601326 8.7185884,-4.0017078 c -1.7454984,2.3720609 -1.7354408,5.6174519 -6e-7,8.035443 z"
         transform="matrix(1.1,0,0,1.1,1.1,0)" />
    </marker>
    <linearGradient
       inkscape:collect="always"
       xlink:href="#linearGradient12029"
       id="linearGradient6618"
       gradientUnits="userSpaceOnUse"
       x1="8.9958334"
       y1="19.84375"
       x2="30.691666"
       y2="19.84375" />
    <linearGradient
       inkscape:collect="always"
       xlink:href="#linearGradient12029"
       id="linearGradient6670"
       gradientUnits="userSpaceOnUse"
       x1="8.9958334"
       y1="19.84375"
       x2="30.691666"
       y2="19.84375" />
    <linearGradient
       inkscape:collect="always"
       xlink:href="#linearGradient12029"
       id="linearGradient6672"
       gradientUnits="userSpaceOnUse"
       x1="8.9958334"
       y1="19.84375"
       x2="30.691666"
       y2="19.84375" />
    <linearGradient
       inkscape:collect="always"
       xlink:href="#linearGradient12029"
       id="linearGradient6674"
       gradientUnits="userSpaceOnUse"
       x1="8.9958334"
       y1="19.84375"
       x2="30.691666"
       y2="19.84375" />
    <linearGradient
       inkscape:collect="always"
       xlink:href="#linearGradient12029"
       id="linearGradient6676"
       gradientUnits="userSpaceOnUse"
       x1="8.9958334"
       y1="19.84375"
       x2="30.691666"
       y2="19.84375" />
  </defs>
  <sodipodi:namedview
     id="base"
     pagecolor="#ffffff"
     bordercolor="#666666"
     borderopacity="1.0"
     inkscape:pageopacity="0.0"
     inkscape:pageshadow="2"
     inkscape:zoom="0.70710678"
     inkscape:cx="319.8509"
     inkscape:cy="427.09358"
     inkscape:document-units="mm"
     inkscape:current-layer="layer1"
     showgrid="true"
     inkscape:snap-others="true"
     inkscape:snap-nodes="true"
     inkscape:snap-bbox="true"
     inkscape:snap-center="true"
     inkscape:snap-text-baseline="true"
     inkscape:window-width="1280"
     inkscape:window-height="737"
     inkscape:window-x="-8"
     inkscape:window-y="-8"
     inkscape:window-maximized="1">
    <inkscape:grid
       type="xygrid"
       id="grid3713"
       units="mm"
       spacingx="0.15"
       spacingy="0.15"
       visible="true"
       enabled="true" />
  </sodipodi:namedview>
  <metadata
     id="metadata5">
    <rdf:RDF>
      <cc:Work
         rdf:about="">
        <dc:format>image/svg+xml</dc:format>
        <dc:type
           rdf:resource="http://purl.org/dc/dcmitype/StillImage" />
        <dc:title />
      </cc:Work>
    </rdf:RDF>
  </metadata>
  <g
     inkscape:label="Capa 1"
     inkscape:groupmode="layer"
     id="layer1"
     transform="translate(0,-87)">
    <use
       id="use10557"
       style="fill:#ffffca;fill-opacity:1;stroke:#000000;stroke-width:0.53328294;stroke-linecap:square;stroke-linejoin:miter;stroke-miterlimit:4;stroke-dasharray:none;stroke-opacity:0.99497483;paint-order:markers stroke fill"
       xlink:href="#AuxillaryOp"
       x="0"
       y="0"
       width="100%"
       height="100%"
       transform="matrix(5.4283811,0,0,6.9826825,42.280563,50.437399)" />
    <use
       id="use10601"
       style="fill:url(#linearGradient6676);fill-opacity:1;stroke:#000000;stroke-width:0.99996662;stroke-linejoin:round;stroke-miterlimit:4;stroke-dasharray:none;stroke-opacity:1"
       xlink:href="#AuxillaryOp"
       x="0"
       y="0"
       width="100%"
       height="100%"
       transform="matrix(1.6053962,0,0,1,21.447457,115.10359)" />
    <path
       style="fill:none;stroke:#000000;stroke-width:0.31533635;stroke-linecap:butt;stroke-linejoin:miter;stroke-miterlimit:4;stroke-dasharray:none;stroke-opacity:1;marker-start:url(#marker4859)"
       d="M 90.20868,134.4496 H 70.320231"
       id="path10657"
       inkscape:connector-curvature="0"
       sodipodi:nodetypes="cc" />
    <path
       style="fill:none;stroke:#000000;stroke-width:0.26458332px;stroke-linecap:butt;stroke-linejoin:miter;stroke-opacity:1"
       d="m 80.11373,132.84939 -1.25,2.5"
       id="path12021"
       inkscape:connector-curvature="0" />
    <text
       xml:space="preserve"
       style="font-style:normal;font-weight:normal;font-size:10.58333302px;line-height:1.25;font-family:sans-serif;letter-spacing:0px;word-spacing:0px;fill:#000000;fill-opacity:1;stroke:none;stroke-width:0.26458332"
       x="79.057991"
       y="137.75746"
       id="text12025"><tspan
         sodipodi:role="line"
         id="tspan12023"
         x="79.057991"
         y="137.75746"
         style="font-size:3.17499995px;stroke-width:0.26458332">1</tspan></text>
    <text
       xml:space="preserve"
       style="font-style:normal;font-weight:normal;font-size:10.40937614px;line-height:0.5;font-family:sans-serif;letter-spacing:0px;word-spacing:0px;fill:#000000;fill-opacity:1;stroke:none;stroke-width:0.26023439"
       x="54.713409"
       y="131.688"
       id="text12043"
       transform="scale(0.98356318,1.0167115)"><tspan
         sodipodi:role="line"
         x="55.45755"
         y="131.688"
         style="font-size:4.23333311px;line-height:0.5;text-align:center;text-anchor:middle;stroke-width:0.26023439"
         id="tspan12053">Sensor de </tspan><tspan
         sodipodi:role="line"
         x="54.713409"
         y="137.12325"
         style="font-size:4.23333311px;line-height:0.5;text-align:center;text-anchor:middle;stroke-width:0.26023439"
         id="tspan12057">Temperatura</tspan></text>
    <use
       transform="matrix(1.6053962,0,0,1,21.757955,141.18126)"
       height="100%"
       width="100%"
       y="0"
       x="0"
       xlink:href="#AuxillaryOp"
       style="fill:url(#linearGradient6674);fill-opacity:1;stroke:#000000;stroke-width:0.99996662;stroke-linejoin:round;stroke-miterlimit:4;stroke-dasharray:none;stroke-opacity:1"
       id="use13639" />
    <path
       sodipodi:nodetypes="cc"
       inkscape:connector-curvature="0"
       id="path13641"
       d="M 90.568816,160.43291 H 70.581092"
       style="fill:none;stroke:#000000;stroke-width:0.30602697;stroke-linecap:butt;stroke-linejoin:miter;stroke-miterlimit:4;stroke-dasharray:none;stroke-opacity:1;marker-start:url(#marker4884)" />
    <path
       inkscape:connector-curvature="0"
       id="path13643"
       d="m 80.424228,158.92708 -1.25,2.5"
       style="fill:none;stroke:#000000;stroke-width:0.26458332px;stroke-linecap:butt;stroke-linejoin:miter;stroke-opacity:1" />
    <text
       id="text13647"
       y="163.83514"
       x="79.368484"
       style="font-style:normal;font-weight:normal;font-size:10.58333302px;line-height:1.25;font-family:sans-serif;letter-spacing:0px;word-spacing:0px;fill:#000000;fill-opacity:1;stroke:none;stroke-width:0.26458332"
       xml:space="preserve"><tspan
         style="font-size:3.17499995px;stroke-width:0.26458332"
         y="163.83514"
         x="79.368484"
         id="tspan13645"
         sodipodi:role="line">1</tspan></text>
    <text
       transform="scale(0.98356318,1.0167115)"
       id="text13653"
       y="157.33701"
       x="52.305748"
       style="font-style:normal;font-weight:normal;font-size:10.40937614px;line-height:0.5;font-family:sans-serif;letter-spacing:0px;word-spacing:0px;fill:#000000;fill-opacity:1;stroke:none;stroke-width:0.26023439"
       xml:space="preserve"><tspan
         id="tspan13649"
         style="font-size:4.23333311px;line-height:0.5;text-align:center;text-anchor:middle;stroke-width:0.26023439"
         y="157.33701"
         x="53.049889"
         sodipodi:role="line">Sensor de </tspan><tspan
         style="font-size:4.23333311px;line-height:0.5;text-align:center;text-anchor:middle;stroke-width:0.26023439"
         y="162.77225"
         x="52.305748"
         sodipodi:role="line"
         id="tspan13675">Humedad</tspan></text>
    <use
       id="use13679"
       style="fill:url(#linearGradient6672);fill-opacity:1;stroke:#000000;stroke-width:0.99996662;stroke-linejoin:round;stroke-miterlimit:4;stroke-dasharray:none;stroke-opacity:1"
       xlink:href="#AuxillaryOp"
       x="0"
       y="0"
       width="100%"
       height="100%"
       transform="matrix(1.6053962,0,0,1,21.757955,168.44275)" />
    <path
       style="fill:none;stroke:#000000;stroke-width:0.30602697;stroke-linecap:butt;stroke-linejoin:miter;stroke-miterlimit:4;stroke-dasharray:none;stroke-opacity:1;marker-start:url(#Arrow2Lstart)"
       d="M 90.424229,187.43857 H 70.436505"
       id="path13681"
       inkscape:connector-curvature="0"
       sodipodi:nodetypes="cc" />
    <path
       style="fill:none;stroke:#000000;stroke-width:0.26458332px;stroke-linecap:butt;stroke-linejoin:miter;stroke-opacity:1"
       d="m 80.424228,186.18857 -1.25,2.5"
       id="path13683"
       inkscape:connector-curvature="0" />
    <text
       xml:space="preserve"
       style="font-style:normal;font-weight:normal;font-size:10.58333302px;line-height:1.25;font-family:sans-serif;letter-spacing:0px;word-spacing:0px;fill:#000000;fill-opacity:1;stroke:none;stroke-width:0.26458332"
       x="79.368484"
       y="191.09663"
       id="text13687"><tspan
         sodipodi:role="line"
         id="tspan13685"
         x="79.368484"
         y="191.09663"
         style="font-size:3.17499995px;stroke-width:0.26458332">1</tspan></text>
    <text
       xml:space="preserve"
       style="font-style:normal;font-weight:normal;font-size:10.40937614px;line-height:0.5;font-family:sans-serif;letter-spacing:0px;word-spacing:0px;fill:#000000;fill-opacity:1;stroke:none;stroke-width:0.26023439"
       x="52.41737"
       y="184.15041"
       id="text13693"
       transform="scale(0.98356318,1.0167115)"><tspan
         sodipodi:role="line"
         x="53.16151"
         y="184.15041"
         style="font-size:4.23333311px;line-height:0.5;text-align:center;text-anchor:middle;stroke-width:0.26023439"
         id="tspan13689">Sensor de </tspan><tspan
         sodipodi:role="line"
         x="52.41737"
         y="189.58565"
         style="font-size:4.23333311px;line-height:0.5;text-align:center;text-anchor:middle;stroke-width:0.26023439"
         id="tspan13697">Viento</tspan></text>
    <flowRoot
       xml:space="preserve"
       id="flowRoot13701"
       style="font-style:normal;font-weight:normal;font-size:13.33333302px;line-height:1.25;font-family:sans-serif;letter-spacing:0px;word-spacing:0px;fill:#000000;fill-opacity:1;stroke:none"><flowRegion
         id="flowRegion13703"><rect
           id="rect13705"
           width="56.692913"
           height="18.897638"
           x="127.55905"
           y="243.7795" /></flowRegion><flowPara
         id="flowPara13707" /></flowRoot>    <path
       style="fill:none;stroke:#000000;stroke-width:0.30527729;stroke-linecap:butt;stroke-linejoin:miter;stroke-miterlimit:4;stroke-dasharray:none;stroke-opacity:1;marker-start:url(#Arrow2Lstart-3)"
       d="M 228.12117,191.17473 H 208.23126"
       id="path10657-9"
       inkscape:connector-curvature="0"
       sodipodi:nodetypes="cc" />
    <path
       style="fill:none;stroke:#000000;stroke-width:0.26458332px;stroke-linecap:butt;stroke-linejoin:miter;stroke-opacity:1"
       d="m 219.99285,189.92473 -1.25,2.5"
       id="path12021-3"
       inkscape:connector-curvature="0" />
    <text
       xml:space="preserve"
       style="font-style:normal;font-weight:normal;font-size:10.58333302px;line-height:1.25;font-family:sans-serif;letter-spacing:0px;word-spacing:0px;fill:#000000;fill-opacity:1;stroke:none;stroke-width:0.26458332"
       x="219.6694"
       y="194.83316"
       id="text12025-0"><tspan
         sodipodi:role="line"
         id="tspan12023-0"
         x="219.6694"
         y="194.83316"
         style="font-size:3.17499995px;stroke-width:0.26458332">6</tspan></text>
    <text
       xml:space="preserve"
       style="font-style:normal;font-weight:normal;font-size:3.52777767px;line-height:1.25;font-family:sans-serif;letter-spacing:0px;word-spacing:0px;fill:#000000;fill-opacity:1;stroke:none;stroke-width:0.26458332"
       x="96.113052"
       y="131.87167"
       id="text4828"><tspan
         sodipodi:role="line"
         x="96.113052"
         y="131.87167"
         style="stroke-width:0.26458332"
         id="tspan4907">P0[23] </tspan><tspan
         sodipodi:role="line"
         x="96.113052"
         y="136.2814"
         style="stroke-width:0.26458332"
         id="tspan4950">GPIO-<tspan
   style="font-style:italic;font-variant:normal;font-weight:bold;font-stretch:normal;font-family:sans-serif;-inkscape-font-specification:'sans-serif Bold Italic'"
   id="tspan6656">AD0.0</tspan>-</tspan><tspan
         sodipodi:role="line"
         x="96.113052"
         y="140.69112"
         style="stroke-width:0.26458332"
         id="tspan4952">I2SRX_CLK-CAP3.0</tspan></text>
    <rect
       style="fill:#ffffca;fill-opacity:0;stroke:#000000;stroke-width:1.49666297;stroke-linecap:square;stroke-linejoin:miter;stroke-miterlimit:4;stroke-dasharray:none;stroke-opacity:0.99497483;paint-order:markers stroke fill"
       id="rect4833"
       width="2"
       height="1.75"
       x="91.958679"
       y="133.4496" />
    <rect
       style="fill:#ffffca;fill-opacity:0;stroke:#000000;stroke-width:1.49666297;stroke-linecap:square;stroke-linejoin:miter;stroke-miterlimit:4;stroke-dasharray:none;stroke-opacity:0.99497483;paint-order:markers stroke fill"
       id="rect4833-4"
       width="2"
       height="1.75"
       x="92.074951"
       y="159.43291" />
    <text
       xml:space="preserve"
       style="font-style:normal;font-weight:normal;font-size:3.52777767px;line-height:1.25;font-family:sans-serif;letter-spacing:0px;word-spacing:0px;fill:#000000;fill-opacity:1;stroke:none;stroke-width:0.26458332"
       x="96.423546"
       y="157.10495"
       id="text4828-7-7"><tspan
         sodipodi:role="line"
         id="tspan4826-7-0"
         x="96.423546"
         y="157.10495"
         style="stroke-width:0.26458332">P0[24]</tspan><tspan
         sodipodi:role="line"
         x="96.423546"
         y="161.51468"
         style="stroke-width:0.26458332"
         id="tspan4919">GPIO-<tspan
   style="font-style:italic;font-variant:normal;font-weight:bold;font-stretch:normal;font-family:sans-serif;-inkscape-font-specification:'sans-serif Bold Italic'"
   id="tspan6662">AD0.1</tspan>-</tspan><tspan
         sodipodi:role="line"
         x="96.423546"
         y="165.92439"
         style="stroke-width:0.26458332"
         id="tspan4917">I2SRX_CLK-CAP3.0</tspan><tspan
         sodipodi:role="line"
         x="96.423546"
         y="170.33412"
         style="stroke-width:0.26458332"
         id="tspan4915" /></text>
    <rect
       style="fill:#ffffca;fill-opacity:0;stroke:#000000;stroke-width:1.49666297;stroke-linecap:square;stroke-linejoin:miter;stroke-miterlimit:4;stroke-dasharray:none;stroke-opacity:0.99497483;paint-order:markers stroke fill"
       id="rect4833-4-3"
       width="2"
       height="1.75"
       x="92.074951"
       y="186.43292" />
    <text
       xml:space="preserve"
       style="font-style:normal;font-weight:normal;font-size:3.52777767px;line-height:1.25;font-family:sans-serif;letter-spacing:0px;word-spacing:0px;fill:#000000;fill-opacity:1;stroke:none;stroke-width:0.26458332"
       x="96.290382"
       y="184.10495"
       id="text4828-7-7-0"><tspan
         sodipodi:role="line"
         id="tspan4826-7-0-8"
         x="96.290382"
         y="184.10495"
         style="stroke-width:0.26458332">P0[25]</tspan><tspan
         sodipodi:role="line"
         x="96.290382"
         y="188.51468"
         style="stroke-width:0.26458332"
         id="tspan4919-5">GPIO-<tspan
   style="font-style:italic;font-variant:normal;font-weight:bold;font-stretch:normal;font-family:sans-serif;-inkscape-font-specification:'sans-serif Bold Italic'"
   id="tspan6664">AD0.2</tspan>-</tspan><tspan
         sodipodi:role="line"
         x="96.290382"
         y="192.92439"
         style="stroke-width:0.26458332"
         id="tspan4917-0">I2SRX_SDA-TXD3</tspan><tspan
         sodipodi:role="line"
         x="96.290382"
         y="197.33412"
         style="stroke-width:0.26458332"
         id="tspan4915-1" /></text>
    <rect
       style="fill:#9f1a08;fill-opacity:0.36683415;stroke:#000000;stroke-width:0.69999999;stroke-linecap:square;stroke-linejoin:miter;stroke-miterlimit:4;stroke-dasharray:none;stroke-opacity:0.99497483;paint-order:markers stroke fill"
       id="rect4954"
       width="36"
       height="21"
       x="228.8712"
       y="181.17902" />
    <text
       xml:space="preserve"
       style="font-style:normal;font-weight:normal;font-size:10.40937614px;line-height:0.5;font-family:sans-serif;letter-spacing:0px;word-spacing:0px;fill:#000000;fill-opacity:0.99497483;stroke:none;stroke-width:0.26023439"
       x="251.01517"
       y="187.05307"
       id="text12043-6"
       transform="scale(0.98356319,1.0167115)"><tspan
         sodipodi:role="line"
         x="251.75931"
         y="187.05307"
         style="font-size:4.23333311px;line-height:0.5;text-align:center;text-anchor:middle;fill:#000000;fill-opacity:0.99497483;stroke-width:0.26023439"
         id="tspan12057-7">Pantalla </tspan><tspan
         sodipodi:role="line"
         x="251.01517"
         y="192.48831"
         style="font-size:4.23333311px;line-height:0.5;text-align:center;text-anchor:middle;fill:#000000;fill-opacity:0.99497483;stroke-width:0.26023439"
         id="tspan13819">LCD 1-1</tspan></text>
    <path
       style="fill:none;stroke:#000000;stroke-width:0.30527729;stroke-linecap:butt;stroke-linejoin:miter;stroke-miterlimit:4;stroke-dasharray:none;stroke-opacity:1;marker-start:url(#Arrow2Lstart-3-1)"
       d="M 228.20868,143.53299 H 208.31877"
       id="path10657-9-6"
       inkscape:connector-curvature="0"
       sodipodi:nodetypes="cc" />
    <path
       style="fill:none;stroke:#000000;stroke-width:0.26458332px;stroke-linecap:butt;stroke-linejoin:miter;stroke-opacity:1"
       d="m 220.08036,142.28299 -1.25,2.5"
       id="path12021-3-1"
       inkscape:connector-curvature="0" />
    <text
       xml:space="preserve"
       style="font-style:normal;font-weight:normal;font-size:10.58333302px;line-height:1.25;font-family:sans-serif;letter-spacing:0px;word-spacing:0px;fill:#000000;fill-opacity:1;stroke:none;stroke-width:0.26458332"
       x="219.75688"
       y="147.19164"
       id="text12025-0-8"><tspan
         sodipodi:role="line"
         id="tspan12023-0-6"
         x="219.75688"
         y="147.19164"
         style="font-size:3.17499995px;stroke-width:0.26458332">1</tspan></text>
    <rect
       style="fill:#9f1a08;fill-opacity:0.36683415;stroke:#000000;stroke-width:0.69999999;stroke-linecap:square;stroke-linejoin:miter;stroke-miterlimit:4;stroke-dasharray:none;stroke-opacity:0.99497483;paint-order:markers stroke fill"
       id="rect4954-3"
       width="36"
       height="21"
       x="228.95868"
       y="133.53729" />
    <text
       xml:space="preserve"
       style="font-style:normal;font-weight:normal;font-size:10.40937614px;line-height:0.5;font-family:sans-serif;letter-spacing:0px;word-spacing:0px;fill:#000000;fill-opacity:0.99497483;stroke:none;stroke-width:0.26023439"
       x="252.61079"
       y="143.14526"
       id="text12043-6-4"
       transform="scale(0.98356319,1.0167115)"><tspan
         sodipodi:role="line"
         x="252.61079"
         y="143.14526"
         style="font-size:4.23333311px;line-height:0.5;text-align:center;text-anchor:middle;fill:#000000;fill-opacity:0.99497483;stroke-width:0.26023439"
         id="tspan12057-7-0">Motor 1-1</tspan><tspan
         sodipodi:role="line"
         x="252.61079"
         y="148.58051"
         style="font-size:4.23333311px;line-height:0.5;text-align:center;text-anchor:middle;fill:#000000;fill-opacity:0.99497483;stroke-width:0.26023439"
         id="tspan13819-2" /></text>
    <rect
       style="fill:#ffffca;fill-opacity:0;stroke:#000000;stroke-width:1.49666297;stroke-linecap:square;stroke-linejoin:miter;stroke-miterlimit:4;stroke-dasharray:none;stroke-opacity:0.99497483;paint-order:markers stroke fill"
       id="rect4833-1"
       width="2"
       height="1.75"
       x="206.02119"
       y="190.36537" />
    <rect
       style="fill:#ffffca;fill-opacity:0;stroke:#000000;stroke-width:1.49666297;stroke-linecap:square;stroke-linejoin:miter;stroke-miterlimit:4;stroke-dasharray:none;stroke-opacity:0.99497483;paint-order:markers stroke fill"
       id="rect4833-1-9"
       width="2"
       height="1.75"
       x="206.05869"
       y="142.71246" />
    <text
       id="text6582"
       y="140.94456"
       x="202.95306"
       style="font-style:normal;font-weight:normal;font-size:3.52777767px;line-height:1.25;font-family:sans-serif;text-align:end;letter-spacing:0px;word-spacing:0px;text-anchor:end;fill:#000000;fill-opacity:1;stroke:none;stroke-width:0.26458332"
       xml:space="preserve"><tspan
         id="tspan6576"
         style="text-align:end;text-anchor:end;stroke-width:0.26458332"
         y="140.94456"
         x="204.1933"
         sodipodi:role="line">P2[0] </tspan><tspan
         id="tspan6580"
         style="text-align:end;text-anchor:end;stroke-width:0.26458332"
         y="145.35429"
         x="202.95306"
         sodipodi:role="line">GPIO - <tspan
   style="font-style:italic;font-variant:normal;font-weight:bold;font-stretch:normal;font-family:sans-serif;-inkscape-font-specification:'sans-serif Bold Italic'"
   id="tspan6666">PWM1.1</tspan>-</tspan><tspan
         style="text-align:end;text-anchor:end;stroke-width:0.26458332"
         y="149.76402"
         x="202.95306"
         sodipodi:role="line"
         id="tspan6586">TXD1-Reserv</tspan></text>
    <use
       transform="matrix(1.6053962,0,0,1,21.757955,207.70378)"
       height="100%"
       width="100%"
       y="0"
       x="0"
       xlink:href="#AuxillaryOp"
       style="fill:url(#linearGradient6670);fill-opacity:1;stroke:#000000;stroke-width:0.99996662;stroke-linejoin:round;stroke-miterlimit:4;stroke-dasharray:none;stroke-opacity:1"
       id="use6590" />
    <path
       sodipodi:nodetypes="cc"
       inkscape:connector-curvature="0"
       id="path6592"
       d="M 90.424229,226.6996 H 70.436505"
       style="fill:none;stroke:#000000;stroke-width:0.30602697;stroke-linecap:butt;stroke-linejoin:miter;stroke-miterlimit:4;stroke-dasharray:none;stroke-opacity:1;marker-start:url(#Arrow2Lstart)" />
    <path
       inkscape:connector-curvature="0"
       id="path6594"
       d="m 80.424228,225.4496 -1.25,2.5"
       style="fill:none;stroke:#000000;stroke-width:0.26458332px;stroke-linecap:butt;stroke-linejoin:miter;stroke-opacity:1" />
    <text
       id="text6598"
       y="230.35767"
       x="79.368484"
       style="font-style:normal;font-weight:normal;font-size:10.58333302px;line-height:1.25;font-family:sans-serif;letter-spacing:0px;word-spacing:0px;fill:#000000;fill-opacity:1;stroke:none;stroke-width:0.26458332"
       xml:space="preserve"><tspan
         style="font-size:3.17499995px;stroke-width:0.26458332"
         y="230.35767"
         x="79.368484"
         id="tspan6596"
         sodipodi:role="line">1</tspan></text>
    <text
       transform="scale(0.98356318,1.0167115)"
       id="text6604"
       y="222.97337"
       x="53.607914"
       style="font-style:normal;font-weight:normal;font-size:10.40937614px;line-height:0.5;font-family:sans-serif;letter-spacing:0px;word-spacing:0px;fill:#000000;fill-opacity:1;stroke:none;stroke-width:0.26023439"
       xml:space="preserve"><tspan
         style="font-size:4.23333311px;line-height:0.5;text-align:center;text-anchor:middle;stroke-width:0.26023439"
         y="222.97337"
         x="54.352055"
         sodipodi:role="line"
         id="tspan6622">Config Tiempo </tspan><tspan
         style="font-size:4.23333311px;line-height:0.5;text-align:center;text-anchor:middle;stroke-width:0.26023439"
         y="228.40862"
         x="54.352055"
         sodipodi:role="line"
         id="tspan6626">de BackUp </tspan></text>
    <rect
       y="225.69395"
       x="92.074951"
       height="1.75"
       width="2"
       id="rect6606"
       style="fill:#ffffca;fill-opacity:0;stroke:#000000;stroke-width:1.49666297;stroke-linecap:square;stroke-linejoin:miter;stroke-miterlimit:4;stroke-dasharray:none;stroke-opacity:0.99497483;paint-order:markers stroke fill" />
    <text
       id="text6616"
       y="223.36598"
       x="96.290382"
       style="font-style:normal;font-weight:normal;font-size:3.52777767px;line-height:1.25;font-family:sans-serif;letter-spacing:0px;word-spacing:0px;fill:#000000;fill-opacity:1;stroke:none;stroke-width:0.26458332"
       xml:space="preserve"><tspan
         style="stroke-width:0.26458332"
         y="223.36598"
         x="96.290382"
         id="tspan6608"
         sodipodi:role="line">P2[10]</tspan><tspan
         id="tspan6610"
         style="stroke-width:0.26458332"
         y="227.77571"
         x="96.290382"
         sodipodi:role="line">GPIO-<tspan
   style="-inkscape-font-specification:'sans-serif Bold Italic';font-family:sans-serif;font-weight:bold;font-style:italic;font-stretch:normal;font-variant:normal"
   id="tspan6678">EINT0</tspan>-</tspan><tspan
         id="tspan6612"
         style="stroke-width:0.26458332"
         y="232.18542"
         x="96.290382"
         sodipodi:role="line">NMI-Reserv</tspan><tspan
         id="tspan6614"
         style="stroke-width:0.26458332"
         y="236.59515"
         x="96.290382"
         sodipodi:role="line" /></text>
    <text
       id="text6582-8"
       y="189.80818"
       x="202.62839"
       style="font-style:normal;font-weight:normal;font-size:3.52777767px;line-height:1.25;font-family:sans-serif;text-align:end;letter-spacing:0px;word-spacing:0px;text-anchor:end;fill:#000000;fill-opacity:1;stroke:none;stroke-width:0.26458332"
       xml:space="preserve"><tspan
         id="tspan6580-1"
         style="text-align:end;text-anchor:end;stroke-width:0.26458332"
         y="189.80818"
         x="203.86862"
         sodipodi:role="line">P2[1-6] </tspan><tspan
         style="text-align:end;text-anchor:end;stroke-width:0.26458332"
         y="194.21791"
         x="203.86862"
         sodipodi:role="line"
         id="tspan6654"><tspan
   style="font-style:italic;font-variant:normal;font-weight:bold;font-stretch:normal;font-family:sans-serif;-inkscape-font-specification:'sans-serif Bold Italic'"
   id="tspan6668">GPIO</tspan> </tspan><tspan
         style="text-align:end;text-anchor:end;stroke-width:0.26458332"
         y="198.62762"
         x="202.62839"
         sodipodi:role="line"
         id="tspan6586-8" /></text>
    <text
       xml:space="preserve"
       style="font-style:normal;font-weight:normal;font-size:5.06688595px;line-height:1.25;font-family:sans-serif;letter-spacing:0px;word-spacing:0px;fill:#000000;fill-opacity:1;stroke:none;stroke-width:0.38001645"
       x="140.82381"
       y="178.94606"
       id="text6682"
       transform="scale(0.96175374,1.0397672)"><tspan
         sodipodi:role="line"
         x="140.82381"
         y="178.94606"
         style="font-style:italic;font-variant:normal;font-weight:bold;font-stretch:normal;font-size:8.10701752px;line-height:0.89999998;font-family:sans-serif;-inkscape-font-specification:'sans-serif Bold Italic';stroke-width:0.38001645"
         id="tspan6694">LPC 1769</tspan></text>
  </g>
</svg>
