<?xml version="1.0" encoding="UTF-8"?>
<session version="1.0">
<refactoring comment="Rename resource &apos;clase4_ejercicio8/src/clase4_ejercicio8&apos; to &apos;clase4_ejercicio8.h&apos;" description="Rename resource &apos;clase4_ejercicio8&apos;" flags="7" id="org.eclipse.ltk.core.refactoring.rename.resource" input="src/clase4_ejercicio8" name="clase4_ejercicio8.h" stamp="1537297039576" updateReferences="true"/>
</session>