03:05:37 **** Incremental Build of configuration Debug for project clase7_Ejemplo5 ****
make -r all 
Building file: ../src/clase7_Ejemplo5.c
Invoking: MCU C Compiler
arm-none-eabi-gcc -DDEBUG -D__CODE_RED -DCORE_M3 -D__LPC17XX__ -D__REDLIB__ -O0 -fno-common -g3 -Wall -c -fmessage-length=0 -fno-builtin -ffunction-sections -fdata-sections -mcpu=cortex-m3 -mthumb -specs=redlib.specs -MMD -MP -MF"src/clase7_Ejemplo5.d" -MT"src/clase7_Ejemplo5.o" -MT"src/clase7_Ejemplo5.d" -o "src/clase7_Ejemplo5.o" "../src/clase7_Ejemplo5.c"
Finished building: ../src/clase7_Ejemplo5.c
 
Building target: clase7_Ejemplo5.axf
Invoking: MCU Linker
arm-none-eabi-gcc -nostdlib -Xlinker -Map="clase7_Ejemplo5.map" -Xlinker --gc-sections -Xlinker -print-memory-usage -mcpu=cortex-m3 -mthumb -T "clase7_Ejemplo5_Debug.ld" -o "clase7_Ejemplo5.axf"  ./src/clase7_Ejemplo5.o ./src/cr_startup_lpc175x_6x.o ./src/crp.o   
Memory region         Used Size  Region Size  %age Used
       MFlash512:        1064 B       512 KB      0.20%
        RamLoc32:          0 GB        32 KB      0.00%
        RamAHB32:          0 GB        32 KB      0.00%
Finished building target: clase7_Ejemplo5.axf
 
make --no-print-directory post-build
Performing post-build steps
arm-none-eabi-size "clase7_Ejemplo5.axf"; # arm-none-eabi-objcopy -v -O binary "clase7_Ejemplo5.axf" "clase7_Ejemplo5.bin" ; # checksum -p LPC1769 -d "clase7_Ejemplo5.bin";
   text	   data	    bss	    dec	    hex	filename
   1064	      0	      0	   1064	    428	clase7_Ejemplo5.axf
 

03:05:55 Build Finished (took 18s.342ms)

